examples/verilog_designs/generated_fir_filter/design.vcd
$date
	Thu Aug  7 11:28:25 2025
$end
$version
	Icarus Verilog
$end
$timescale
	1ps
$end
$scope module fir_filter_tb $end
$var wire 1 ! output_valid $end
$var wire 16 " dout [15:0] $end
$var reg 1 # arst $end
$var reg 1 $ clk $end
$var reg 16 % din [15:0] $end
$var reg 1 & input_valid $end
$scope module dut $end
$var wire 1 # arst $end
$var wire 1 $ clk $end
$var wire 16 ' din [15:0] $end
$var wire 1 & input_valid $end
$var wire 1 ! output_valid $end
$var wire 16 ( dout [15:0] $end
$var reg 36 ) adder_stage4 [35:0] $end
$var reg 6 * valid_pipeline [5:0] $end
$var integer 32 + i [31:0] $end
$upscope $end
$upscope $end
$enddefinitions $end
#0
$dumpvars
bx +
bx *
bx )
bx (
b0 '
0&
b0 %
0$
1#
bx "
x!
$end
#5000
b0 "
b0 (
0!
b0 )
b0 *
b1011 +
1$
#10000
0$
#15000
0#
b10 +
1$
#20000
0$
#25000
b1100100 %
b1100100 '
1&
1$
#30000
0$
#35000
b0 %
b0 '
b1 *
b1011 +
1$
#40000
0$
#45000
b11 *
b1011 +
1$
#50000
0$
#55000
b111 *
b1011 +
1$
#60000
0$
#65000
b1111 *
b1011 +
1$
#70000
0$
#75000
b11111 *
b1011 +
1$
#80000
0$
#85000
1!
b101000101000 )
b111111 *
b1011 +
1$
#90000
0$
#95000
b10000001101100 )
b1011 +
1$
#100000
0$
#105000
b110001110011100 )
b1011 +
1$
#110000
0$
#115000
b1101101111101100 )
b1011 +
1$
#120000
0$
#125000
b10100110011010000 )
b1011 +
1$
#130000
0$
#135000
b10111111011010000 )
b1011 +
1$
#140000
0$
#145000
b10100110011010000 )
b1011 +
1$
#150000
0$
#155000
b1101101111101100 )
b1011 +
1$
#160000
0$
#165000
b110001110011100 )
b1011 +
1$
#170000
0$
#175000
b10000001101100 )
b1011 +
1$
#180000
0$
#185000
b101000101000 )
b1011 +
1$
#190000
0$
#195000
0&
b0 )
b1011 +
1$
#200000
0$
#205000
b111110 *
1$
#210000
0$
#215000
b111100 *
1$
#220000
0$
#225000
b111000 *
1$
#230000
0$
#235000
b110000 *
1$
#240000
0$
#245000
b100000 *
1$
#250000
0$
#255000
0!
b0 *
1$
#260000
0$
#265000
1$
#270000
0$
#275000
b11001 %
b11001 '
1&
1$
#280000
0$
#285000
b1 *
b1011 +
1$
#290000
0$
#295000
b11 *
b1011 +
1$
#300000
0$
#305000
b111 *
b1011 +
1$
#310000
0$
#315000
b1111 *
b1011 +
1$
#320000
0$
#325000
b11111 *
b1011 +
1$
#330000
0$
#335000
1!
b111111 *
b1010001010 )
b1011 +
1$
#340000
0$
#345000
b101010100101 )
b1011 +
1$
#350000
0$
#355000
b10001110001100 )
b1011 +
1$
#360000
0$
#365000
b101101010000111 )
b1011 +
1$
#370000
0$
#375000
b1010110110111011 )
b1011 +
1$
#380000
0$
#385000
b10000110101101111 )
b1011 +
1$
#390000
0$
#395000
b10110000010100011 )
b1011 +
1$
#400000
0$
#405000
b11001011110011110 )
b1011 +
1$
#410000
0$
#415000
b11011000010000101 )
b1011 +
1$
#420000
0$
#425000
b11011100010100000 )
b1011 +
1$
#430000
0$
#435000
b11011101100101010 )
b1011 +
1$
#440000
0$
#445000
b1011 +
1$
#450000
0$
#455000
b1011 +
1$
#460000
0$
#465000
b1011 +
1$
#470000
0$
#475000
b1011 +
1$
#480000
0$
#485000
b1011 +
1$
#490000
0$
#495000
0&
b1011 +
1$
#500000
0$
#505000
b111110 *
1$
#510000
0$
#515000
b111100 *
1$
#520000
0$
#525000
b111000 *
1$
#530000
0$
#535000
b110000 *
1$
#540000
0$
#545000
b100000 *
1$
#550000
0$
#555000
0!
b0 *
1$
#560000
0$
#565000
1$
#570000
0$
#575000
b11001000 %
b11001000 '
1&
1$
#580000
0$
#585000
b1 *
b1111111100111000 %
b1111111100111000 '
b1011 +
1$
#590000
0$
#595000
b11001000 %
b11001000 '
b11 *
b1011 +
1$
#600000
0$
#605000
b111 *
b1111111100111000 %
b1111111100111000 '
b1011 +
1$
#610000
0$
#615000
b11001000 %
b11001000 '
b1111 *
b1011 +
1$
#620000
0$
#625000
b11111 *
b1111111100111000 %
b1111111100111000 '
b1011 +
1$
#630000
0$
#635000
1!
b11001000 %
b11001000 '
b111111 *
b11100110011110000 )
b1011 +
1$
#640000
0$
#645000
b11101110100001101 )
b1111111100111000 %
b1111111100111000 '
b1011 +
1$
#650000
0$
#655000
b11001000 %
b11001000 '
b100011001001001110 )
b1011 +
1$
#660000
0$
#665000
b100111110111001011 )
b1111111100111000 %
b1111111100111000 '
b1011 +
1$
#670000
0$
#675000
b11001000 %
b11001000 '
b101000100111100111 )
b1011 +
1$
#680000
0$
#685000
b100010111011100011 )
b1111111100111000 %
b1111111100111000 '
b1011 +
1$
#690000
0$
#695000
b11001000 %
b11001000 '
b10111001011111111 )
b1011 +
1$
#700000
0$
#705000
b1100001011101100 )
b1111111100111000 %
b1111111100111000 '
b1011 +
1$
#710000
0$
#715000
b11001000 %
b11001000 '
b11001001111101 )
b1011 +
1$
#720000
0$
#725000
b1101110001010 )
b1111111100111000 %
b1111111100111000 '
b1011 +
1$
#730000
0$
#735000
b1111111111111111 "
b1111111111111111 (
b11001000 %
b11001000 '
b111111111111111111111111101101010000 )
b1011 +
1$
#740000
0$
#745000
b0 "
b0 (
b10010110000 )
b1111111100111000 %
b1111111100111000 '
b1011 +
1$
#750000
0$
#755000
b1111111111111111 "
b1111111111111111 (
b11001000 %
b11001000 '
b111111111111111111111111101101010000 )
b1011 +
1$
#760000
0$
#765000
b0 "
b0 (
b10010110000 )
b1111111100111000 %
b1111111100111000 '
b1011 +
1$
#770000
0$
#775000
b1111111111111111 "
b1111111111111111 (
b11001000 %
b11001000 '
b111111111111111111111111101101010000 )
b1011 +
1$
#780000
0$
#785000
b0 "
b0 (
b10010110000 )
b1111111100111000 %
b1111111100111000 '
b1011 +
1$
#790000
0$
#795000
b1111111111111111 "
b1111111111111111 (
b11001000 %
b11001000 '
b111111111111111111111111101101010000 )
b1011 +
1$
#800000
0$
#805000
b0 "
b0 (
b10010110000 )
b1111111100111000 %
b1111111100111000 '
b1011 +
1$
#810000
0$
#815000
b1111111111111111 "
b1111111111111111 (
b11001000 %
b11001000 '
b111111111111111111111111101101010000 )
b1011 +
1$
#820000
0$
#825000
b0 "
b0 (
b10010110000 )
b1111111100111000 %
b1111111100111000 '
b1011 +
1$
#830000
0$
#835000
b1111111111111111 "
b1111111111111111 (
b11001000 %
b11001000 '
b111111111111111111111111101101010000 )
b1011 +
1$
#840000
0$
#845000
b0 "
b0 (
b10010110000 )
b1111111100111000 %
b1111111100111000 '
b1011 +
1$
#850000
0$
#855000
b1111111111111111 "
b1111111111111111 (
b11001000 %
b11001000 '
b111111111111111111111111101101010000 )
b1011 +
1$
#860000
0$
#865000
b0 "
b0 (
b10010110000 )
b1111111100111000 %
b1111111100111000 '
b1011 +
1$
#870000
0$
#875000
b1111111111111111 "
b1111111111111111 (
b11001000 %
b11001000 '
b111111111111111111111111101101010000 )
b1011 +
1$
#880000
0$
#885000
b0 "
b0 (
b10010110000 )
b1111111100111000 %
b1111111100111000 '
b1011 +
1$
#890000
0$
#895000
b1111111111111111 "
b1111111111111111 (
b11001000 %
b11001000 '
b111111111111111111111111101101010000 )
b1011 +
1$
#900000
0$
#905000
b0 "
b0 (
b10010110000 )
b1111111100111000 %
b1111111100111000 '
b1011 +
1$
#910000
0$
#915000
b1111111111111111 "
b1111111111111111 (
b11001000 %
b11001000 '
b111111111111111111111111101101010000 )
b1011 +
1$
#920000
0$
#925000
b0 "
b0 (
b10010110000 )
b1111111100111000 %
b1111111100111000 '
b1011 +
1$
#930000
0$
#935000
b1111111111111111 "
b1111111111111111 (
b11001000 %
b11001000 '
b111111111111111111111111101101010000 )
b1011 +
1$
#940000
0$
#945000
b0 "
b0 (
b10010110000 )
b1111111100111000 %
b1111111100111000 '
b1011 +
1$
#950000
0$
#955000
b1111111111111111 "
b1111111111111111 (
b11001000 %
b11001000 '
b111111111111111111111111101101010000 )
b1011 +
1$
#960000
0$
#965000
b0 "
b0 (
b10010110000 )
b1111111100111000 %
b1111111100111000 '
b1011 +
1$
#970000
0$
#975000
b1111111111111111 "
b1111111111111111 (
0&
b111111111111111111111111101101010000 )
b1011 +
1$
#980000
0$
#985000
b0 "
b0 (
b10010110000 )
b111110 *
1$
#990000
0$
#995000
b1111111111111111 "
b1111111111111111 (
b111100 *
b111111111111111111111111101101010000 )
1$
#1000000
0$
#1005000
b0 "
b0 (
b10010110000 )
b111000 *
1$
#1010000
0$
#1015000
b1111111111111111 "
b1111111111111111 (
b110000 *
b111111111111111111111111101101010000 )
1$
#1020000
0$
#1025000
b0 "
b0 (
b10010110000 )
b100000 *
1$
#1030000
0$
#1035000
0!
b0 *
1$
